-------------------------------------------------------------------------------
Test set: com.autozone.sdlc.tools.JiraAutomation.services.JiraServiceImplTest
-------------------------------------------------------------------------------
Tests run: 16, Failures: 0, Errors: 0, Skipped: 0, Time elapsed: 2.703 s - in com.autozone.sdlc.tools.JiraAutomation.services.JiraServiceImplTest
